<svg width="375" height="100%" viewBox="0 0 375 5227" fill="none" xmlns="http://www.w3.org/2000/svg" style="">
<g opacity="0.3">
<path d="M368.75 0L61.5625 307.188L420.375 666L-60 1146.38L420.375 1626.75L-60 2107.12L420.375 2587.5L-60 3067.88L420.375 3548.25L-60 4028.62L420.375 4509L-60 4989.38L420.375 5469.75L-60 5950.12L420.375 6430.5" stroke="url(#paint0_linear)" class="svg-elem-1 XxPpLQQD_0"></path>
<path d="M413.75 0L106.562 307.188L465.375 666L-15 1146.38L465.375 1626.75L-15 2107.12L465.375 2587.5L-15 3067.88L465.375 3548.25L-15 4028.62L465.375 4509L-15 4989.38L465.375 5469.75L-15 5950.12L465.375 6430.5" stroke="url(#paint1_linear)" class="svg-elem-2 XxPpLQQD_1"></path>
<path d="M323.75 0L16.5625 307.188L375.375 666L-105 1146.38L375.375 1626.75L-105 2107.12L375.375 2587.5L-105 3067.88L375.375 3548.25L-105 4028.62L375.375 4509L-105 4989.38L375.375 5469.75L-105 5950.12L375.375 6430.5" stroke="url(#paint2_linear)" class="svg-elem-3 XxPpLQQD_2"></path>
<path d="M278.75 0L-28.4375 307.188L330.375 666L-150 1146.38L330.375 1626.75L-150 2107.12L330.375 2587.5L-150 3067.88L330.375 3548.25L-150 4028.62L330.375 4509L-150 4989.38L330.375 5469.75L-150 5950.12L330.375 6430.5" stroke="url(#paint3_linear)" class="svg-elem-4 XxPpLQQD_3"></path>
<path d="M233.75 0L-73.4375 307.188L285.375 666L-195 1146.38L285.375 1626.75L-195 2107.12L285.375 2587.5L-195 3067.88L285.375 3548.25L-195 4028.62L285.375 4509L-195 4989.38L285.375 5469.75L-195 5950.12L285.375 6430.5" stroke="url(#paint4_linear)" class="svg-elem-5 XxPpLQQD_4"></path>
</g>
<defs>
<linearGradient id="paint0_linear" x1="420.375" y1="3253.55" x2="49.496" y2="3253.55" gradientUnits="userSpaceOnUse">
<stop stop-color="#5A2BBA"></stop>
<stop offset="1" stop-color="#C34381"></stop>
</linearGradient>
<linearGradient id="paint1_linear" x1="465.375" y1="3253.55" x2="94.496" y2="3253.55" gradientUnits="userSpaceOnUse">
<stop stop-color="#5A2BBA"></stop>
<stop offset="1" stop-color="#C34381"></stop>
</linearGradient>
<linearGradient id="paint2_linear" x1="375.375" y1="3253.55" x2="4.49603" y2="3253.55" gradientUnits="userSpaceOnUse">
<stop stop-color="#5A2BBA"></stop>
<stop offset="1" stop-color="#C34381"></stop>
</linearGradient>
<linearGradient id="paint3_linear" x1="330.375" y1="3253.55" x2="-40.504" y2="3253.55" gradientUnits="userSpaceOnUse">
<stop stop-color="#5A2BBA"></stop>
<stop offset="1" stop-color="#C34381"></stop>
</linearGradient>
<linearGradient id="paint4_linear" x1="285.375" y1="3253.55" x2="-85.504" y2="3253.55" gradientUnits="userSpaceOnUse">
<stop stop-color="#5A2BBA"></stop>
<stop offset="1" stop-color="#C34381"></stop>
</linearGradient>
</defs>
<style data-made-with="vivus-instant">.XxPpLQQD_0{stroke-dasharray:9095 9097;stroke-dashoffset:9096;animation:XxPpLQQD_draw_0 24500ms linear 0ms infinite,XxPpLQQD_fade 24500ms linear 0ms infinite;}.XxPpLQQD_1{stroke-dasharray:9095 9097;stroke-dashoffset:9096;animation:XxPpLQQD_draw_1 24500ms linear 0ms infinite,XxPpLQQD_fade 24500ms linear 0ms infinite;}.XxPpLQQD_2{stroke-dasharray:9095 9097;stroke-dashoffset:9096;animation:XxPpLQQD_draw_2 24500ms linear 0ms infinite,XxPpLQQD_fade 24500ms linear 0ms infinite;}.XxPpLQQD_3{stroke-dasharray:9095 9097;stroke-dashoffset:9096;animation:XxPpLQQD_draw_3 24500ms linear 0ms infinite,XxPpLQQD_fade 24500ms linear 0ms infinite;}.XxPpLQQD_4{stroke-dasharray:9095 9097;stroke-dashoffset:9096;animation:XxPpLQQD_draw_4 24500ms linear 0ms infinite,XxPpLQQD_fade 24500ms linear 0ms infinite;}@keyframes XxPpLQQD_draw{100%{stroke-dashoffset:0;}}@keyframes XxPpLQQD_fade{0%{stroke-opacity:1;}95.91836734693878%{stroke-opacity:1;}100%{stroke-opacity:0;}}@keyframes XxPpLQQD_draw_0{2.0408163265306123%{stroke-dashoffset: 9096}61.904761904761905%{ stroke-dashoffset: 0;}100%{ stroke-dashoffset: 0;}}@keyframes XxPpLQQD_draw_1{9.523809523809522%{stroke-dashoffset: 9096}69.38775510204081%{ stroke-dashoffset: 0;}100%{ stroke-dashoffset: 0;}}@keyframes XxPpLQQD_draw_2{17.006802721088434%{stroke-dashoffset: 9096}76.87074829931973%{ stroke-dashoffset: 0;}100%{ stroke-dashoffset: 0;}}@keyframes XxPpLQQD_draw_3{24.489795918367346%{stroke-dashoffset: 9096}84.35374149659864%{ stroke-dashoffset: 0;}100%{ stroke-dashoffset: 0;}}@keyframes XxPpLQQD_draw_4{31.972789115646254%{stroke-dashoffset: 9096}91.83673469387756%{ stroke-dashoffset: 0;}100%{ stroke-dashoffset: 0;}}</style></svg>
