<svg width="71" height="72" viewBox="0 0 71 72" fill="none" xmlns="http://www.w3.org/2000/svg">
<path d="M40.065 47.5365C48.8886 47.5365 56.0415 40.2828 56.0415 31.335C56.0415 22.3871 48.8886 15.1334 40.065 15.1334C31.2413 15.1334 24.0884 22.3871 24.0884 31.335C24.0884 40.2828 31.2413 47.5365 40.065 47.5365Z" fill="#C34381"/>
<path d="M63.7684 4.71815C55.7574 4.71815 47.9255 3.18823 40.4895 0.17257L40.0649 0L39.6416 0.172323C32.2046 3.18823 24.3725 4.7179 16.3614 4.7179H13.8176V29.0204H8.11178C6.2243 29.0204 4.68835 30.578 4.68835 32.4921V52.1656C4.68835 54.0796 6.2243 55.6374 8.11178 55.6374H18.3823C18.3845 55.6374 18.3857 55.6374 18.3879 55.6374C21.0834 59.9806 24.8185 63.568 29.2715 66.0297L40.0647 72L50.8579 66.0297C60.3913 60.7573 66.3118 50.6416 66.3118 39.6304V4.71815H63.7684ZM6.97048 52.1656V32.4921C6.97048 31.8544 7.48173 31.3349 8.11154 31.3349H18.3821C19.0119 31.3349 19.5231 31.8546 19.5231 32.4921V52.1656C19.5231 52.8032 19.0119 53.3229 18.3821 53.3229H8.11178C7.48173 53.3229 6.97048 52.8032 6.97048 52.1656ZM21.806 34.7965C25.6165 34.5871 28.6531 31.3767 28.6531 27.4619V21.4984C28.6531 19.9038 29.9324 18.6052 31.5061 18.6052C33.0798 18.6052 34.3591 19.9036 34.3591 21.4984V28.7822C34.3591 30.8281 36.0002 32.4923 38.0177 32.4923H46.3837C48.5621 32.4923 50.3357 34.2896 50.3357 36.4999V49.3153C50.3357 51.5256 48.5624 53.3229 46.3837 53.3229H29.5694C28.6633 53.3229 27.8234 52.8657 27.3202 52.1021C26.3936 50.6927 24.8426 49.8513 23.172 49.8513H21.806V34.7965ZM64.0297 39.6301C64.0297 49.7933 58.5646 59.1311 49.766 63.9973L40.0649 69.3636L30.3638 63.9973C26.3936 61.8008 23.0386 58.638 20.5714 54.8121C21.2641 54.2218 21.7196 53.3656 21.7833 52.3934C24.0862 56.4218 27.4025 59.7223 31.4572 61.965L40.0652 66.7271L48.6732 61.965C56.738 57.5049 61.7478 48.947 61.7478 39.6311V22.0769H59.4654V39.6314C59.4654 48.0989 54.9121 55.8794 47.581 59.9332L40.0652 64.0902L32.5493 59.9332C29.3335 58.1544 26.6322 55.6409 24.602 52.5996C24.9205 52.802 25.2058 53.059 25.4215 53.3866C26.3481 54.7961 27.8991 55.6374 29.5697 55.6374H46.384C49.8223 55.6374 52.6183 52.801 52.6183 49.3153V36.4999C52.6183 33.0142 49.8225 30.1778 46.384 30.1778H38.018C37.2591 30.1778 36.6417 29.5517 36.6417 28.7822V21.4984C36.6417 18.6272 34.3377 16.2907 31.5064 16.2907C28.675 16.2907 26.371 18.6272 26.371 21.4984V27.4606C26.371 30.0993 24.3523 32.2447 21.8016 32.4518C21.7902 31.4463 21.3507 30.5503 20.6649 29.9233V11.5286C27.2929 11.1156 33.8126 9.74194 40.0649 7.43878C46.3175 9.74169 52.836 11.1153 59.4649 11.5286V12.8191H61.7473V9.32644L60.6586 9.27558C53.7499 8.95513 46.9541 7.55704 40.4608 5.12106L40.0647 4.9717L39.6686 5.11983C33.174 7.55581 26.3783 8.9539 19.4708 9.27435L18.3821 9.32644V29.0207H16.0997V7.03266H16.3609C24.5125 7.03266 32.4836 5.50496 40.0644 2.49153C47.6453 5.50496 55.6164 7.03266 63.768 7.03266H64.0292V39.6301H64.0297Z" fill="#1D1B1B"/>
<path d="M61.7473 17.4479H59.465V19.7624H61.7473V17.4479Z" fill="#1D1B1B"/>
<path d="M17.241 48.694H9.25281V51.0085H17.241V48.694Z" fill="#1D1B1B"/>
</svg>
