<svg width="85" height="61" viewBox="0 0 85 61" fill="none" xmlns="http://www.w3.org/2000/svg">
<path d="M60.5713 13.8637V0H0V60.7143H60.5528V47.3523H55.8635V55.9939H4.68927V4.6832H55.8635V13.8452H60.5713V13.8637Z" fill="#1D1B1B"/>
<path d="M18.9424 24.3824C18.4049 24.9213 17.7747 25.2001 17.0333 25.2001C16.2919 25.2001 15.6617 24.9213 15.1242 24.3824C14.5867 23.8434 14.3087 23.2116 14.3087 22.4682C14.3087 21.7248 14.5867 21.093 15.1242 20.5726C15.6617 20.0337 16.2919 19.7735 17.0333 19.7735C17.7747 19.7735 18.4049 20.0337 18.9424 20.5726C19.4799 21.1116 19.7579 21.7434 19.7579 22.4682C19.7394 23.2116 19.4799 23.8434 18.9424 24.3824ZM14.6794 40.5505V26.3523H19.3687V40.5505H14.6794Z" fill="url(#paint0_linear)"/>
<path d="M30.7304 25.962C32.2503 25.962 33.5106 26.4824 34.4744 27.5417C35.4382 28.601 35.9387 30.1063 35.9387 32.0762V40.5691H31.2309V32.6709C31.2309 31.9275 31.0455 31.37 30.6563 30.9983C30.2671 30.6266 29.7481 30.4222 29.1179 30.4222C28.3765 30.4222 27.8205 30.6452 27.4127 31.0913C27.005 31.5373 26.8011 32.1691 26.8011 33.0054V40.5506H22.1118V26.3523H26.8011V27.7647C27.6351 26.5753 28.9511 25.962 30.7304 25.962Z" fill="url(#paint1_linear)"/>
<path d="M38.478 40.5505V19.8292H43.1858V40.5505H38.478Z" fill="url(#paint2_linear)"/>
<path d="M55.8636 26.3523H60.5714V40.5505H55.8636V39.2496C54.8998 40.3833 53.5653 40.9594 51.8416 40.9594C49.951 40.9594 48.3756 40.2532 47.0967 38.8222C45.8178 37.3912 45.1876 35.6072 45.1876 33.47C45.1876 31.3328 45.8178 29.5487 47.0967 28.1178C48.3756 26.6868 49.951 25.9806 51.8416 25.9806C53.5653 25.9806 54.8998 26.5567 55.8636 27.6903V26.3523ZM50.748 35.7001C51.3041 36.2762 52.0084 36.5549 52.898 36.5549C53.7877 36.5549 54.5106 36.2762 55.0481 35.7001C55.6041 35.124 55.8636 34.3806 55.8636 33.4514C55.8636 32.5222 55.5856 31.7788 55.0481 31.2027C54.492 30.6266 53.7877 30.3479 52.898 30.3479C52.0084 30.3479 51.2855 30.6266 50.748 31.2027C50.192 31.7788 49.9325 32.5222 49.9325 33.4514C49.914 34.3806 50.192 35.124 50.748 35.7001Z" fill="url(#paint3_linear)"/>
<path d="M72.0071 25.962C73.8976 25.962 75.4731 26.6682 76.7519 28.0992C78.0308 29.5302 78.661 31.3143 78.661 33.4514C78.661 35.5886 78.0308 37.3727 76.7519 38.8036C75.4731 40.2346 73.8976 40.9408 72.0071 40.9408C70.2833 40.9408 68.9488 40.3647 67.985 39.2311V40.532H63.2958V20.6841H67.985V27.6718C68.9488 26.5381 70.2833 25.962 72.0071 25.962ZM68.8006 35.7001C69.3566 36.2762 70.0609 36.555 70.9506 36.555C71.8403 36.555 72.5631 36.2762 73.1006 35.7001C73.6567 35.124 73.9161 34.3806 73.9161 33.4514C73.9161 32.5222 73.6381 31.7789 73.1006 31.2027C72.5446 30.6266 71.8403 30.3479 70.9506 30.3479C70.0609 30.3479 69.3381 30.6266 68.8006 31.2027C68.2445 31.7789 67.985 32.5222 67.985 33.4514C67.985 34.3806 68.2445 35.124 68.8006 35.7001Z" fill="url(#paint4_linear)"/>
<path d="M82.2939 40.9408C81.534 40.9408 80.8853 40.6807 80.3663 40.1417C79.8474 39.6028 79.5693 38.9709 79.5693 38.2276C79.5693 37.4842 79.8288 36.8338 80.3663 36.3134C80.9038 35.7745 81.5525 35.5143 82.2939 35.5143C83.0353 35.5143 83.684 35.7745 84.203 36.3134C84.7405 36.8523 85 37.4842 85 38.2276C85 38.9709 84.7405 39.6214 84.203 40.1417C83.684 40.6807 83.0539 40.9408 82.2939 40.9408Z" fill="url(#paint5_linear)"/>
<path d="M70.4337 47.2472H71.2211L69.4379 52.8652H68.6043L67.1106 48.3371L65.6169 52.8652H64.7832L63 47.2472H63.7874L65.2116 51.9101L66.7285 47.2472H67.4927L69.0095 51.9101L70.4337 47.2472Z" fill="black"/>
<path d="M74.8222 47.1124C75.6791 47.1124 76.3699 47.4082 76.8949 48C77.4275 48.5843 77.6938 49.2772 77.6938 50.0787C77.6938 50.161 77.6861 50.2772 77.6706 50.427H72.5874C72.6646 50.9963 72.9117 51.4494 73.3285 51.7865C73.7531 52.1161 74.2741 52.2809 74.8917 52.2809C75.3317 52.2809 75.7099 52.1948 76.0264 52.0225C76.3506 51.8427 76.5938 51.6105 76.7559 51.3258L77.4275 51.7079C77.1727 52.1049 76.8254 52.4195 76.3854 52.6517C75.9454 52.8839 75.4436 53 74.8801 53C73.9692 53 73.2282 52.7228 72.6569 52.1685C72.0857 51.6142 71.8001 50.9101 71.8001 50.0562C71.8001 49.2172 72.0818 48.5169 72.6453 47.9551C73.2089 47.3933 73.9345 47.1124 74.8222 47.1124ZM74.8222 47.8315C74.2201 47.8315 73.7145 48.0075 73.3053 48.3596C72.9039 48.7041 72.6646 49.1536 72.5874 49.7079H76.9064C76.8292 49.1161 76.5938 48.6554 76.2001 48.3258C75.8064 47.9963 75.3471 47.8315 74.8222 47.8315Z" fill="black"/>
<path d="M82.0126 47.1124C82.8386 47.1124 83.541 47.397 84.12 47.9663C84.7067 48.5356 85 49.2322 85 50.0562C85 50.8802 84.7067 51.5768 84.12 52.1461C83.541 52.7154 82.8386 53 82.0126 53C80.9859 53 80.2063 52.588 79.6736 51.764V52.8652H78.9094V45H79.6736V48.3483C80.2063 47.5243 80.9859 47.1124 82.0126 47.1124ZM80.3336 51.6404C80.7736 52.0674 81.314 52.2809 81.9547 52.2809C82.5954 52.2809 83.1358 52.0674 83.5758 51.6404C84.0158 51.206 84.2358 50.6779 84.2358 50.0562C84.2358 49.4345 84.0158 48.9101 83.5758 48.4831C83.1358 48.0487 82.5954 47.8315 81.9547 47.8315C81.314 47.8315 80.7736 48.0487 80.3336 48.4831C79.8936 48.9101 79.6736 49.4345 79.6736 50.0562C79.6736 50.6779 79.8936 51.206 80.3336 51.6404Z" fill="black"/>
<defs>
<linearGradient id="paint0_linear" x1="62.8141" y1="-15.1275" x2="2.26022" y2="45.2654" gradientUnits="userSpaceOnUse">
<stop stop-color="#C34381"/>
<stop offset="1" stop-color="#5A2BBA"/>
</linearGradient>
<linearGradient id="paint1_linear" x1="70.1418" y1="-7.78026" x2="9.58789" y2="52.6126" gradientUnits="userSpaceOnUse">
<stop stop-color="#C34381"/>
<stop offset="1" stop-color="#5A2BBA"/>
</linearGradient>
<linearGradient id="paint2_linear" x1="74.4228" y1="-3.48803" x2="13.8689" y2="56.9048" gradientUnits="userSpaceOnUse">
<stop stop-color="#C34381"/>
<stop offset="1" stop-color="#5A2BBA"/>
</linearGradient>
<linearGradient id="paint3_linear" x1="82.9811" y1="5.09315" x2="22.4272" y2="65.486" gradientUnits="userSpaceOnUse">
<stop stop-color="#C34381"/>
<stop offset="1" stop-color="#5A2BBA"/>
</linearGradient>
<linearGradient id="paint4_linear" x1="88.7919" y1="10.9196" x2="28.238" y2="71.3125" gradientUnits="userSpaceOnUse">
<stop stop-color="#C34381"/>
<stop offset="1" stop-color="#5A2BBA"/>
</linearGradient>
<linearGradient id="paint5_linear" x1="97.6756" y1="22.8136" x2="42.07" y2="78.2714" gradientUnits="userSpaceOnUse">
<stop stop-color="#C34381"/>
<stop offset="1" stop-color="#5A2BBA"/>
</linearGradient>
</defs>
</svg>
