<svg width="85" height="61" viewBox="0 0 85 61" fill="none" xmlns="http://www.w3.org/2000/svg">
<path d="M60.5713 13.8637V0H0V60.7143H60.5528V47.3523H55.8635V55.9939H4.68927V4.6832H55.8635V13.8452H60.5713V13.8637Z" fill="white"/>
<path d="M18.9424 24.3824C18.4049 24.9213 17.7748 25.2001 17.0334 25.2001C16.292 25.2001 15.6618 24.9213 15.1243 24.3824C14.5868 23.8434 14.3088 23.2116 14.3088 22.4682C14.3088 21.7248 14.5868 21.093 15.1243 20.5726C15.6618 20.0337 16.292 19.7735 17.0334 19.7735C17.7748 19.7735 18.4049 20.0337 18.9424 20.5726C19.4799 21.1116 19.758 21.7434 19.758 22.4682C19.7394 23.2116 19.4799 23.8434 18.9424 24.3824ZM14.6795 40.5505V26.3523H19.3687V40.5505H14.6795Z" fill="white"/>
<path d="M30.7304 25.962C32.2503 25.962 33.5106 26.4824 34.4744 27.5417C35.4382 28.601 35.9387 30.1063 35.9387 32.0762V40.5691H31.2309V32.6709C31.2309 31.9275 31.0455 31.37 30.6563 30.9983C30.2671 30.6266 29.7481 30.4222 29.1179 30.4222C28.3765 30.4222 27.8205 30.6452 27.4127 31.0913C27.005 31.5373 26.8011 32.1691 26.8011 33.0054V40.5506H22.1118V26.3523H26.8011V27.7647C27.6351 26.5753 28.9511 25.962 30.7304 25.962Z" fill="white"/>
<path d="M38.478 40.5505V19.8292H43.1858V40.5505H38.478Z" fill="white"/>
<path d="M55.8635 26.3523H60.5714V40.5505H55.8635V39.2496C54.8997 40.3833 53.5652 40.9594 51.8415 40.9594C49.951 40.9594 48.3755 40.2532 47.0966 38.8222C45.8178 37.3912 45.1876 35.6072 45.1876 33.47C45.1876 31.3328 45.8178 29.5487 47.0966 28.1178C48.3755 26.6868 49.951 25.9806 51.8415 25.9806C53.5652 25.9806 54.8997 26.5567 55.8635 27.6903V26.3523ZM50.748 35.7001C51.304 36.2762 52.0083 36.5549 52.898 36.5549C53.7877 36.5549 54.5105 36.2762 55.048 35.7001C55.6041 35.124 55.8635 34.3806 55.8635 33.4514C55.8635 32.5222 55.5855 31.7788 55.048 31.2027C54.492 30.6266 53.7877 30.3479 52.898 30.3479C52.0083 30.3479 51.2855 30.6266 50.748 31.2027C50.1919 31.7788 49.9325 32.5222 49.9325 33.4514C49.9139 34.3806 50.1919 35.124 50.748 35.7001Z" fill="white"/>
<path d="M72.0071 25.962C73.8977 25.962 75.4731 26.6682 76.752 28.0991C78.0309 29.5301 78.6611 31.3142 78.6611 33.4514C78.6611 35.5885 78.0309 37.3726 76.752 38.8036C75.4731 40.2346 73.8977 40.9408 72.0071 40.9408C70.2834 40.9408 68.9489 40.3647 67.9851 39.231V40.5319H63.2958V20.6841H67.9851V27.6717C68.9489 26.5381 70.2834 25.962 72.0071 25.962ZM68.8006 35.7C69.3567 36.2761 70.061 36.5549 70.9507 36.5549C71.8403 36.5549 72.5632 36.2761 73.1007 35.7C73.6567 35.1239 73.9162 34.3806 73.9162 33.4514C73.9162 32.5222 73.6382 31.7788 73.1007 31.2027C72.5446 30.6266 71.8403 30.3478 70.9507 30.3478C70.061 30.3478 69.3381 30.6266 68.8006 31.2027C68.2446 31.7788 67.9851 32.5222 67.9851 33.4514C67.9851 34.3806 68.2446 35.1239 68.8006 35.7Z" fill="white"/>
<path d="M82.2939 40.9408C81.534 40.9408 80.8853 40.6806 80.3663 40.1417C79.8473 39.6027 79.5693 38.9709 79.5693 38.2275C79.5693 37.4841 79.8288 36.8337 80.3663 36.3133C80.9038 35.7744 81.5525 35.5142 82.2939 35.5142C83.0353 35.5142 83.684 35.7744 84.203 36.3133C84.7405 36.8523 85 37.4841 85 38.2275C85 38.9709 84.7405 39.6213 84.203 40.1417C83.684 40.6806 83.0538 40.9408 82.2939 40.9408Z" fill="white"/>
<path d="M70.4337 47.2472H71.2211L69.4379 52.8652H68.6043L67.1106 48.3371L65.6169 52.8652H64.7832L63 47.2472H63.7874L65.2116 51.9101L66.7285 47.2472H67.4927L69.0095 51.9101L70.4337 47.2472Z" fill="white"/>
<path d="M74.8222 47.1124C75.6791 47.1124 76.3699 47.4082 76.8949 48C77.4275 48.5843 77.6938 49.2772 77.6938 50.0787C77.6938 50.161 77.6861 50.2772 77.6706 50.427H72.5874C72.6646 50.9963 72.9117 51.4494 73.3285 51.7865C73.7531 52.1161 74.2741 52.2809 74.8917 52.2809C75.3317 52.2809 75.7099 52.1948 76.0264 52.0225C76.3506 51.8427 76.5938 51.6105 76.7559 51.3258L77.4275 51.7079C77.1727 52.1049 76.8254 52.4195 76.3854 52.6517C75.9454 52.8839 75.4436 53 74.8801 53C73.9692 53 73.2282 52.7228 72.6569 52.1685C72.0857 51.6142 71.8001 50.9101 71.8001 50.0562C71.8001 49.2172 72.0818 48.5169 72.6453 47.9551C73.2089 47.3933 73.9345 47.1124 74.8222 47.1124ZM74.8222 47.8315C74.2201 47.8315 73.7145 48.0075 73.3053 48.3596C72.9039 48.7041 72.6646 49.1536 72.5874 49.7079H76.9064C76.8292 49.1161 76.5938 48.6554 76.2001 48.3258C75.8064 47.9963 75.3471 47.8315 74.8222 47.8315Z" fill="white"/>
<path d="M82.0126 47.1124C82.8386 47.1124 83.541 47.397 84.12 47.9663C84.7067 48.5356 85 49.2322 85 50.0562C85 50.8802 84.7067 51.5768 84.12 52.1461C83.541 52.7154 82.8386 53 82.0126 53C80.9859 53 80.2063 52.588 79.6736 51.764V52.8652H78.9094V45H79.6736V48.3483C80.2063 47.5243 80.9859 47.1124 82.0126 47.1124ZM80.3336 51.6404C80.7736 52.0674 81.314 52.2809 81.9547 52.2809C82.5954 52.2809 83.1358 52.0674 83.5758 51.6404C84.0158 51.206 84.2358 50.6779 84.2358 50.0562C84.2358 49.4345 84.0158 48.9101 83.5758 48.4831C83.1358 48.0487 82.5954 47.8315 81.9547 47.8315C81.314 47.8315 80.7736 48.0487 80.3336 48.4831C79.8936 48.9101 79.6736 49.4345 79.6736 50.0562C79.6736 50.6779 79.8936 51.206 80.3336 51.6404Z" fill="white"/>
</svg>
